Covid 19 Trends
…
Identifying the highest fatality rate countries

Summarizing the data based on the Continent_Name and Two_Letter_Country_Code columns.

covid_df_all_states_cumulative_max <- covid_df_all_states_cumulative %>% 
  group_by(Continent_Name, Two_Letter_Country_Code) %>% 
  summarise(max = max(death)) %>% 
  filter(max > 0)

## `summarise()` regrouping output by 'Continent_Name' (override with `.groups` argument)

covid_df_all_states_cumulative_max

## # A tibble: 24 x 3
## # Groups:   Continent_Name [4]
##    Continent_Name Two_Letter_Country_Code   max
##    <chr>          <chr>                   <dbl>
##  1 Asia           AM                        139
##  2 Asia           BD                        672
##  3 Asia           IL                        279
##  4 Asia           KR                        271
##  5 Asia           RU                       4693
##  6 Asia           SG                         23
##  7 Asia           TR                       4540
##  8 Europe         BE                       8903
##  9 Europe         EE                         68
## 10 Europe         GB                      33186
## #  with 14 more rows
…
Summarizing the data based on the Country_Region column.

covid_df_all_states_daily_sum <- covid_df_all_states_daily %>% 
  group_by(Country_Region) %>% 
  summarise(tested = sum(daily_tested), 
            positive = sum(daily_positive),
            active = sum(active),
            hospitalized = sum(hospitalizedCurr)) %>% 
  arrange(desc(tested)) #this is equivalent to `arrange(-tested)`

## `summarise()` ungrouping output (override with `.groups` argument)

covid_df_all_states_daily_sum

## # A tibble: 108 x 5
##    Country_Region   tested positive  active hospitalized
##    <chr>             <dbl>    <dbl>   <dbl>        <dbl>
##  1 United States  17282363  1877179       0            0
##  2 Russia         10542266   406368 6924890            0
##  3 Italy           4091291   251710 6202214      1699003
##  4 India           3692851    60959       0            0
##  5 Turkey          2031192   163941 2980960            0
##  6 Canada          1654779    90873   56454            0
##  7 United Kingdom  1473672   166909       0            0
##  8 Australia       1252900     7200  134586         6655
##  9 Peru             976790    59497       0            0
## 10 Poland           928256    23987  538203            0
## #  with 98 more rows
…
